ece475-lab3/build/add_riscvssc.out
WARNING: ../riscvssc/riscvssc-sim.v:183: $readmemh: The behaviour for reg[...] mem[N:0]; $readmemh("...", mem); changed in the 1364-2005 standard. To avoid ambiguity, use mem[0:N] or explicit range parameters $readmemh("...", mem, start, stop);. Defaulting to 1364-2005 behavior.
VCD info: dumpfile /home/sh6571/ECE475-lab3/ece475-lab3/tests/build/vmh/riscv-add.vcd opened for output.
DEBUG D: cyc=5 ir0=00000113 ir1=00000193
  val=1 cs0v=1 cs1v=1 steer=0
  hazards: raw=0 waw=0 struct=0 sb0=0 sb1=0
  issue: ir0_v=1 ir1_v=1
DEBUG D: cyc=6 ir0=00000193 ir1=00310233
  val=1 cs0v=1 cs1v=1 steer=0
  hazards: raw=1 waw=0 struct=0 sb0=0 sb1=0
  issue: ir0_v=1 ir1_v=0
DEBUG D: cyc=8 ir0=00310233 ir1=00d00e93
  val=1 cs0v=1 cs1v=1 steer=0
  hazards: raw=0 waw=0 struct=0 sb0=0 sb1=0
  issue: ir0_v=1 ir1_v=1
DEBUG D: cyc=9 ir0=00d00e93 ir1=00000093
  val=1 cs0v=1 cs1v=1 steer=0
  hazards: raw=0 waw=0 struct=0 sb0=0 sb1=0
  issue: ir0_v=1 ir1_v=1
DEBUG D: cyc=10 ir0=00000093 ir1=38121263
  val=1 cs0v=1 cs1v=1 steer=1
  hazards: raw=1 waw=0 struct=0 sb0=0 sb1=0
  issue: ir0_v=1 ir1_v=0
00080000: 00000113:  addi   r02, r00, 00000000
00080004: 00000000:      undefined inst       
-----
DEBUG D: cyc=12 ir0=38121263 ir1=00100113
  val=1 cs0v=1 cs1v=1 steer=0
  hazards: raw=0 waw=0 struct=0 sb0=0 sb1=0
  issue: ir0_v=1 ir1_v=1
00080004: 00000193:  addi   r03, r00, 00000000
00080008: 00000000:      undefined inst       
-----
DEBUG D: cyc=13 ir0=00100113 ir1=00100193
  val=1 cs0v=1 cs1v=1 steer=0
  hazards: raw=0 waw=0 struct=0 sb0=0 sb1=0
  issue: ir0_v=1 ir1_v=1
00080008: 00000000:      undefined inst       
00080008: 00000000:      undefined inst       
-----
DEBUG D: cyc=14 ir0=00100193 ir1=00310233
  val=1 cs0v=1 cs1v=1 steer=0
  hazards: raw=1 waw=0 struct=0 sb0=0 sb1=0
  issue: ir0_v=1 ir1_v=0
00080008: 00310233:  add    r04, r02, r03     
0008000c: 00000000:      undefined inst       
-----
0008000c: 00d00e93:  addi   r29, r00, 0000000d
00080010: 00000000:      undefined inst       
-----
DEBUG D: cyc=16 ir0=00310233 ir1=00e00e93
  val=1 cs0v=1 cs1v=1 steer=0
  hazards: raw=0 waw=0 struct=0 sb0=0 sb1=0
  issue: ir0_v=1 ir1_v=1
00080014: 00000093:  addi   r01, r00, 00000000
00080010: 00000000:      undefined inst       
-----
DEBUG D: cyc=17 ir0=00e00e93 ir1=00200093
  val=1 cs0v=1 cs1v=1 steer=0
  hazards: raw=0 waw=0 struct=0 sb0=0 sb1=0
  issue: ir0_v=1 ir1_v=1
00080014: 00000000:      undefined inst       
00080014: 00000000:      undefined inst       
-----
DEBUG D: cyc=18 ir0=00200093 ir1=36121663
  val=1 cs0v=1 cs1v=1 steer=1
  hazards: raw=1 waw=0 struct=0 sb0=0 sb1=0
  issue: ir0_v=1 ir1_v=0
00080014: 38121263:  bne    r04, r01, 00000384
00080018: 00000000:      undefined inst       
-----
00080018: 00100113:  addi   r02, r00, 00000001
0008001c: 00000000:      undefined inst       
-----
DEBUG D: cyc=20 ir0=36121663 ir1=00300113
  val=1 cs0v=1 cs1v=1 steer=0
  hazards: raw=0 waw=0 struct=0 sb0=0 sb1=0
  issue: ir0_v=1 ir1_v=1
0008001c: 00100193:  addi   r03, r00, 00000001
00080020: 00000000:      undefined inst       
-----
00080020: 00000000:      undefined inst       
00080020: 00000000:      undefined inst       
-----
00080020: 00310233:  add    r04, r02, r03     
00080024: 00000000:      undefined inst       
-----
DEBUG D: cyc=23 ir0=00700193 ir1=00310233
  val=1 cs0v=1 cs1v=1 steer=0
  hazards: raw=1 waw=0 struct=0 sb0=0 sb1=0
  issue: ir0_v=1 ir1_v=0
00080024: 00e00e93:  addi   r29, r00, 0000000e
00080028: 00000000:      undefined inst       
-----
0008002c: 00200093:  addi   r01, r00, 00000002
00080028: 00000000:      undefined inst       
-----
DEBUG D: cyc=25 ir0=00310233 ir1=00f00e93
  val=1 cs0v=1 cs1v=1 steer=0
  hazards: raw=0 waw=0 struct=0 sb0=0 sb1=0
  issue: ir0_v=1 ir1_v=1
0008002c: 00000000:      undefined inst       
0008002c: 00000000:      undefined inst       
-----
DEBUG D: cyc=26 ir0=00f00e93 ir1=00a00093
  val=1 cs0v=1 cs1v=1 steer=0
  hazards: raw=0 waw=0 struct=0 sb0=0 sb1=0
  issue: ir0_v=1 ir1_v=1
0008002c: 36121663:  bne    r04, r01, 0000036c
00080030: 00000000:      undefined inst       
-----
DEBUG D: cyc=27 ir0=00a00093 ir1=34121a63
  val=1 cs0v=1 cs1v=1 steer=1
  hazards: raw=1 waw=0 struct=0 sb0=0 sb1=0
  issue: ir0_v=1 ir1_v=0
DEBUG D: cyc=29 ir0=34121a63 ir1=00000113
  val=1 cs0v=1 cs1v=1 steer=0
  hazards: raw=0 waw=0 struct=0 sb0=0 sb1=0
  issue: ir0_v=1 ir1_v=1
00080034: 00700193:  addi   r03, r00, 00000007
00080038: 00000000:      undefined inst       
-----
00080038: 00000000:      undefined inst       
00080038: 00000000:      undefined inst       
-----
00080038: 00310233:  add    r04, r02, r03     
0008003c: 00000000:      undefined inst       
-----
DEBUG D: cyc=32 ir0=ffff81b7 ir1=00310233
  val=1 cs0v=1 cs1v=1 steer=0
  hazards: raw=1 waw=0 struct=0 sb0=0 sb1=0
  issue: ir0_v=1 ir1_v=0
0008003c: 00f00e93:  addi   r29, r00, 0000000f
00080040: 00000000:      undefined inst       
-----
00080044: 00a00093:  addi   r01, r00, 0000000a
00080040: 00000000:      undefined inst       
-----
DEBUG D: cyc=34 ir0=00310233 ir1=01100e93
  val=1 cs0v=1 cs1v=1 steer=0
  hazards: raw=0 waw=0 struct=0 sb0=0 sb1=0
  issue: ir0_v=1 ir1_v=1
00080044: 00000000:      undefined inst       
00080044: 00000000:      undefined inst       
-----
DEBUG D: cyc=35 ir0=01100e93 ir1=ffff80b7
  val=1 cs0v=1 cs1v=1 steer=0
  hazards: raw=0 waw=0 struct=0 sb0=0 sb1=0
  issue: ir0_v=1 ir1_v=1
00080044: 34121a63:  bne    r04, r01, 00000354
00080048: 00000000:      undefined inst       
-----
DEBUG D: cyc=36 ir0=ffff80b7 ir1=32121e63
  val=1 cs0v=1 cs1v=1 steer=1
  hazards: raw=1 waw=0 struct=0 sb0=0 sb1=0
  issue: ir0_v=1 ir1_v=0
DEBUG D: cyc=38 ir0=32121e63 ir1=80000137
  val=1 cs0v=1 cs1v=1 steer=0
  hazards: raw=0 waw=0 struct=0 sb0=0 sb1=0
  issue: ir0_v=1 ir1_v=1
0008004c: ffff81b7:  lui    r03, ffff8000     
00080050: 00000000:      undefined inst       
-----
00080050: 00000000:      undefined inst       
00080050: 00000000:      undefined inst       
-----
00080050: 00310233:  add    r04, r02, r03     
00080054: 00000000:      undefined inst       
-----
DEBUG D: cyc=41 ir0=00000193 ir1=00310233
  val=1 cs0v=1 cs1v=1 steer=0
  hazards: raw=1 waw=0 struct=0 sb0=0 sb1=0
  issue: ir0_v=1 ir1_v=0
00080054: 01100e93:  addi   r29, r00, 00000011
00080058: 00000000:      undefined inst       
-----
0008005c: ffff80b7:  lui    r01, ffff8000     
00080058: 00000000:      undefined inst       
-----
DEBUG D: cyc=43 ir0=00310233 ir1=01200e93
  val=1 cs0v=1 cs1v=1 steer=0
  hazards: raw=0 waw=0 struct=0 sb0=0 sb1=0
  issue: ir0_v=1 ir1_v=1
0008005c: 00000000:      undefined inst       
0008005c: 00000000:      undefined inst       
-----
DEBUG D: cyc=44 ir0=01200e93 ir1=800000b7
  val=1 cs0v=1 cs1v=1 steer=0
  hazards: raw=0 waw=0 struct=0 sb0=0 sb1=0
  issue: ir0_v=1 ir1_v=1
0008005c: 32121e63:  bne    r04, r01, 0000033c
00080060: 00000000:      undefined inst       
-----
DEBUG D: cyc=45 ir0=800000b7 ir1=32121263
  val=1 cs0v=1 cs1v=1 steer=1
  hazards: raw=1 waw=0 struct=0 sb0=0 sb1=0
  issue: ir0_v=1 ir1_v=0
DEBUG D: cyc=47 ir0=32121263 ir1=80000137
  val=1 cs0v=1 cs1v=1 steer=0
  hazards: raw=0 waw=0 struct=0 sb0=0 sb1=0
  issue: ir0_v=1 ir1_v=1
00080064: 00000193:  addi   r03, r00, 00000000
00080068: 00000000:      undefined inst       
-----
DEBUG D: cyc=48 ir0=80000137 ir1=ffff81b7
  val=1 cs0v=1 cs1v=1 steer=0
  hazards: raw=0 waw=0 struct=0 sb0=0 sb1=0
  issue: ir0_v=1 ir1_v=1
00080068: 00000000:      undefined inst       
00080068: 00000000:      undefined inst       
-----
DEBUG D: cyc=49 ir0=ffff81b7 ir1=00310233
  val=1 cs0v=1 cs1v=1 steer=0
  hazards: raw=1 waw=0 struct=0 sb0=0 sb1=0
  issue: ir0_v=1 ir1_v=0
00080068: 00310233:  add    r04, r02, r03     
0008006c: 00000000:      undefined inst       
-----
0008006c: 01200e93:  addi   r29, r00, 00000012
00080070: 00000000:      undefined inst       
-----
DEBUG D: cyc=51 ir0=00310233 ir1=01300e93
  val=1 cs0v=1 cs1v=1 steer=0
  hazards: raw=0 waw=0 struct=0 sb0=0 sb1=0
  issue: ir0_v=1 ir1_v=1
00080074: 800000b7:  lui    r01, 80000000     
00080070: 00000000:      undefined inst       
-----
DEBUG D: cyc=52 ir0=01300e93 ir1=7fff80b7
  val=1 cs0v=1 cs1v=1 steer=0
  hazards: raw=0 waw=0 struct=0 sb0=0 sb1=0
  issue: ir0_v=1 ir1_v=1
00080074: 00000000:      undefined inst       
00080074: 00000000:      undefined inst       
-----
DEBUG D: cyc=53 ir0=7fff80b7 ir1=30121663
  val=1 cs0v=1 cs1v=1 steer=1
  hazards: raw=1 waw=0 struct=0 sb0=0 sb1=0
  issue: ir0_v=1 ir1_v=0
00080074: 32121263:  bne    r04, r01, 00000324
00080078: 00000000:      undefined inst       
-----
00080078: 80000137:  lui    r02, 80000000     
0008007c: 00000000:      undefined inst       
-----
DEBUG D: cyc=55 ir0=30121663 ir1=00000113
  val=1 cs0v=1 cs1v=1 steer=0
  hazards: raw=0 waw=0 struct=0 sb0=0 sb1=0
  issue: ir0_v=1 ir1_v=1
0008007c: ffff81b7:  lui    r03, ffff8000     
00080080: 00000000:      undefined inst       
-----
00080080: 00000000:      undefined inst       
00080080: 00000000:      undefined inst       
-----
00080080: 00310233:  add    r04, r02, r03     
00080084: 00000000:      undefined inst       
-----
DEBUG D: cyc=58 ir0=000081b7 ir1=fff18193
  val=1 cs0v=1 cs1v=1 steer=0
  hazards: raw=1 waw=1 struct=0 sb0=0 sb1=0
  issue: ir0_v=1 ir1_v=0
00080084: 01300e93:  addi   r29, r00, 00000013
00080088: 00000000:      undefined inst       
-----
0008008c: 7fff80b7:  lui    r01, 7fff8000     
00080088: 00000000:      undefined inst       
-----
DEBUG D: cyc=60 ir0=fff18193 ir1=00310233
  val=1 cs0v=1 cs1v=1 steer=0
  hazards: raw=1 waw=0 struct=0 sb0=0 sb1=0
  issue: ir0_v=1 ir1_v=0
0008008c: 00000000:      undefined inst       
0008008c: 00000000:      undefined inst       
-----
0008008c: 30121663:  bne    r04, r01, 0000030c
00080090: 00000000:      undefined inst       
-----
DEBUG D: cyc=62 ir0=00310233 ir1=01500e93
  val=1 cs0v=1 cs1v=1 steer=0
  hazards: raw=0 waw=0 struct=0 sb0=0 sb1=0
  issue: ir0_v=1 ir1_v=1
DEBUG D: cyc=63 ir0=01500e93 ir1=000080b7
  val=1 cs0v=1 cs1v=1 steer=0
  hazards: raw=0 waw=0 struct=0 sb0=0 sb1=0
  issue: ir0_v=1 ir1_v=1
DEBUG D: cyc=64 ir0=000080b7 ir1=fff08093
  val=1 cs0v=1 cs1v=1 steer=0
  hazards: raw=1 waw=1 struct=0 sb0=0 sb1=0
  issue: ir0_v=1 ir1_v=0
00080094: 000081b7:  lui    r03, 00008000     
00080098: 00000000:      undefined inst       
-----
00080098: 00000000:      undefined inst       
00080098: 00000000:      undefined inst       
-----
DEBUG D: cyc=66 ir0=fff08093 ir1=2e121663
  val=1 cs0v=1 cs1v=1 steer=1
  hazards: raw=1 waw=0 struct=0 sb0=0 sb1=0
  issue: ir0_v=1 ir1_v=0
00080098: fff18193:  addi   r03, r03, ffffffff
0008009c: 00000000:      undefined inst       
-----
0008009c: 00000000:      undefined inst       
0008009c: 00000000:      undefined inst       
-----
DEBUG D: cyc=68 ir0=2e121663 ir1=80000137
  val=1 cs0v=1 cs1v=1 steer=0
  hazards: raw=0 waw=0 struct=0 sb0=0 sb1=0
  issue: ir0_v=1 ir1_v=1
0008009c: 00310233:  add    r04, r02, r03     
000800a0: 00000000:      undefined inst       
-----
000800a0: 01500e93:  addi   r29, r00, 00000015
000800a4: 00000000:      undefined inst       
-----
000800a4: 000080b7:  lui    r01, 00008000     
000800a8: 00000000:      undefined inst       
-----
DEBUG D: cyc=71 ir0=fff10113 ir1=00000193
  val=1 cs0v=1 cs1v=1 steer=0
  hazards: raw=0 waw=0 struct=0 sb0=0 sb1=0
  issue: ir0_v=1 ir1_v=1
000800a8: 00000000:      undefined inst       
000800a8: 00000000:      undefined inst       
-----
DEBUG D: cyc=72 ir0=00000193 ir1=00310233
  val=1 cs0v=1 cs1v=1 steer=0
  hazards: raw=1 waw=0 struct=0 sb0=0 sb1=0
  issue: ir0_v=1 ir1_v=0
000800ac: fff08093:  addi   r01, r01, ffffffff
000800a8: 00000000:      undefined inst       
-----
000800ac: 00000000:      undefined inst       
000800ac: 00000000:      undefined inst       
-----
DEBUG D: cyc=74 ir0=00310233 ir1=01600e93
  val=1 cs0v=1 cs1v=1 steer=0
  hazards: raw=0 waw=0 struct=0 sb0=0 sb1=0
  issue: ir0_v=1 ir1_v=1
000800ac: 2e121663:  bne    r04, r01, 000002ec
000800b0: 00000000:      undefined inst       
-----
DEBUG D: cyc=75 ir0=01600e93 ir1=800000b7
  val=1 cs0v=1 cs1v=1 steer=0
  hazards: raw=0 waw=0 struct=0 sb0=0 sb1=0
  issue: ir0_v=1 ir1_v=1
DEBUG D: cyc=76 ir0=800000b7 ir1=fff08093
  val=1 cs0v=1 cs1v=1 steer=0
  hazards: raw=1 waw=1 struct=0 sb0=0 sb1=0
  issue: ir0_v=1 ir1_v=0
000800b4: fff10113:  addi   r02, r02, ffffffff
000800b8: 00000000:      undefined inst       
-----
DEBUG D: cyc=78 ir0=fff08093 ir1=2c121663
  val=1 cs0v=1 cs1v=1 steer=1
  hazards: raw=1 waw=0 struct=0 sb0=0 sb1=0
  issue: ir0_v=1 ir1_v=0
000800b8: 00000193:  addi   r03, r00, 00000000
000800bc: 00000000:      undefined inst       
-----
000800bc: 00000000:      undefined inst       
000800bc: 00000000:      undefined inst       
-----
DEBUG D: cyc=80 ir0=2c121663 ir1=80000137
  val=1 cs0v=1 cs1v=1 steer=0
  hazards: raw=0 waw=0 struct=0 sb0=0 sb1=0
  issue: ir0_v=1 ir1_v=1
000800bc: 00310233:  add    r04, r02, r03     
000800c0: 00000000:      undefined inst       
-----
000800c0: 01600e93:  addi   r29, r00, 00000016
000800c4: 00000000:      undefined inst       
-----
000800c4: 800000b7:  lui    r01, 80000000     
000800c8: 00000000:      undefined inst       
-----
DEBUG D: cyc=83 ir0=fff10113 ir1=000081b7
  val=1 cs0v=1 cs1v=1 steer=0
  hazards: raw=0 waw=0 struct=0 sb0=0 sb1=0
  issue: ir0_v=1 ir1_v=1
000800c8: 00000000:      undefined inst       
000800c8: 00000000:      undefined inst       
-----
DEBUG D: cyc=84 ir0=000081b7 ir1=fff18193
  val=1 cs0v=1 cs1v=1 steer=0
  hazards: raw=1 waw=1 struct=0 sb0=0 sb1=0
  issue: ir0_v=1 ir1_v=0
000800cc: fff08093:  addi   r01, r01, ffffffff
000800c8: 00000000:      undefined inst       
-----
000800cc: 00000000:      undefined inst       
000800cc: 00000000:      undefined inst       
-----
DEBUG D: cyc=86 ir0=fff18193 ir1=00310233
  val=1 cs0v=1 cs1v=1 steer=0
  hazards: raw=1 waw=0 struct=0 sb0=0 sb1=0
  issue: ir0_v=1 ir1_v=0
000800cc: 2c121663:  bne    r04, r01, 000002cc
000800d0: 00000000:      undefined inst       
-----
DEBUG D: cyc=88 ir0=00310233 ir1=01700e93
  val=1 cs0v=1 cs1v=1 steer=0
  hazards: raw=0 waw=0 struct=0 sb0=0 sb1=0
  issue: ir0_v=1 ir1_v=1
DEBUG D: cyc=89 ir0=01700e93 ir1=800080b7
  val=1 cs0v=1 cs1v=1 steer=0
  hazards: raw=0 waw=0 struct=0 sb0=0 sb1=0
  issue: ir0_v=1 ir1_v=1
000800d4: fff10113:  addi   r02, r02, ffffffff
000800d8: 00000000:      undefined inst       
-----
DEBUG D: cyc=90 ir0=800080b7 ir1=ffe08093
  val=1 cs0v=1 cs1v=1 steer=0
  hazards: raw=1 waw=1 struct=0 sb0=0 sb1=0
  issue: ir0_v=1 ir1_v=0
000800d8: 000081b7:  lui    r03, 00008000     
000800dc: 00000000:      undefined inst       
-----
000800dc: 00000000:      undefined inst       
000800dc: 00000000:      undefined inst       
-----
DEBUG D: cyc=92 ir0=ffe08093 ir1=2a121463
  val=1 cs0v=1 cs1v=1 steer=1
  hazards: raw=1 waw=0 struct=0 sb0=0 sb1=0
  issue: ir0_v=1 ir1_v=0
000800dc: fff18193:  addi   r03, r03, ffffffff
000800e0: 00000000:      undefined inst       
-----
000800e0: 00000000:      undefined inst       
000800e0: 00000000:      undefined inst       
-----
DEBUG D: cyc=94 ir0=2a121463 ir1=80000137
  val=1 cs0v=1 cs1v=1 steer=0
  hazards: raw=0 waw=0 struct=0 sb0=0 sb1=0
  issue: ir0_v=1 ir1_v=1
000800e0: 00310233:  add    r04, r02, r03     
000800e4: 00000000:      undefined inst       
-----
000800e4: 01700e93:  addi   r29, r00, 00000017
000800e8: 00000000:      undefined inst       
-----
000800e8: 800080b7:  lui    r01, 80008000     
000800ec: 00000000:      undefined inst       
-----
DEBUG D: cyc=97 ir0=000081b7 ir1=fff18193
  val=1 cs0v=1 cs1v=1 steer=0
  hazards: raw=1 waw=1 struct=0 sb0=0 sb1=0
  issue: ir0_v=1 ir1_v=0
000800ec: 00000000:      undefined inst       
000800ec: 00000000:      undefined inst       
-----
000800f0: ffe08093:  addi   r01, r01, fffffffe
000800ec: 00000000:      undefined inst       
-----
DEBUG D: cyc=99 ir0=fff18193 ir1=00310233
  val=1 cs0v=1 cs1v=1 steer=0
  hazards: raw=1 waw=0 struct=0 sb0=0 sb1=0
  issue: ir0_v=1 ir1_v=0
000800f0: 00000000:      undefined inst       
000800f0: 00000000:      undefined inst       
-----
000800f0: 2a121463:  bne    r04, r01, 000002a8
000800f4: 00000000:      undefined inst       
-----
DEBUG D: cyc=101 ir0=00310233 ir1=01900e93
  val=1 cs0v=1 cs1v=1 steer=0
  hazards: raw=0 waw=0 struct=0 sb0=0 sb1=0
  issue: ir0_v=1 ir1_v=1
DEBUG D: cyc=102 ir0=01900e93 ir1=800080b7
  val=1 cs0v=1 cs1v=1 steer=0
  hazards: raw=0 waw=0 struct=0 sb0=0 sb1=0
  issue: ir0_v=1 ir1_v=1
DEBUG D: cyc=103 ir0=800080b7 ir1=fff08093
  val=1 cs0v=1 cs1v=1 steer=0
  hazards: raw=1 waw=1 struct=0 sb0=0 sb1=0
  issue: ir0_v=1 ir1_v=0
000800f8: 000081b7:  lui    r03, 00008000     
000800fc: 00000000:      undefined inst       
-----
000800fc: 00000000:      undefined inst       
000800fc: 00000000:      undefined inst       
-----
DEBUG D: cyc=105 ir0=fff08093 ir1=28121463
  val=1 cs0v=1 cs1v=1 steer=1
  hazards: raw=1 waw=0 struct=0 sb0=0 sb1=0
  issue: ir0_v=1 ir1_v=0
000800fc: fff18193:  addi   r03, r03, ffffffff
00080100: 00000000:      undefined inst       
-----
00080100: 00000000:      undefined inst       
00080100: 00000000:      undefined inst       
-----
DEBUG D: cyc=107 ir0=28121463 ir1=80000137
  val=1 cs0v=1 cs1v=1 steer=0
  hazards: raw=0 waw=0 struct=0 sb0=0 sb1=0
  issue: ir0_v=1 ir1_v=1
00080100: 00310233:  add    r04, r02, r03     
00080104: 00000000:      undefined inst       
-----
00080104: 01900e93:  addi   r29, r00, 00000019
00080108: 00000000:      undefined inst       
-----
00080108: 800080b7:  lui    r01, 80008000     
0008010c: 00000000:      undefined inst       
-----
DEBUG D: cyc=110 ir0=fff10113 ir1=ffff81b7
  val=1 cs0v=1 cs1v=1 steer=0
  hazards: raw=0 waw=0 struct=0 sb0=0 sb1=0
  issue: ir0_v=1 ir1_v=1
0008010c: 00000000:      undefined inst       
0008010c: 00000000:      undefined inst       
-----
DEBUG D: cyc=111 ir0=ffff81b7 ir1=00310233
  val=1 cs0v=1 cs1v=1 steer=0
  hazards: raw=1 waw=0 struct=0 sb0=0 sb1=0
  issue: ir0_v=1 ir1_v=0
00080110: fff08093:  addi   r01, r01, ffffffff
0008010c: 00000000:      undefined inst       
-----
00080110: 00000000:      undefined inst       
00080110: 00000000:      undefined inst       
-----
DEBUG D: cyc=113 ir0=00310233 ir1=01a00e93
  val=1 cs0v=1 cs1v=1 steer=0
  hazards: raw=0 waw=0 struct=0 sb0=0 sb1=0
  issue: ir0_v=1 ir1_v=1
00080110: 28121463:  bne    r04, r01, 00000288
00080114: 00000000:      undefined inst       
-----
DEBUG D: cyc=114 ir0=01a00e93 ir1=7fff80b7
  val=1 cs0v=1 cs1v=1 steer=0
  hazards: raw=0 waw=0 struct=0 sb0=0 sb1=0
  issue: ir0_v=1 ir1_v=1
DEBUG D: cyc=115 ir0=7fff80b7 ir1=fff08093
  val=1 cs0v=1 cs1v=1 steer=0
  hazards: raw=1 waw=1 struct=0 sb0=0 sb1=0
  issue: ir0_v=1 ir1_v=0
00080118: fff10113:  addi   r02, r02, ffffffff
0008011c: 00000000:      undefined inst       
-----
DEBUG D: cyc=117 ir0=fff08093 ir1=26121463
  val=1 cs0v=1 cs1v=1 steer=1
  hazards: raw=1 waw=0 struct=0 sb0=0 sb1=0
  issue: ir0_v=1 ir1_v=0
0008011c: ffff81b7:  lui    r03, ffff8000     
00080120: 00000000:      undefined inst       
-----
00080120: 00000000:      undefined inst       
00080120: 00000000:      undefined inst       
-----
DEBUG D: cyc=119 ir0=26121463 ir1=00000113
  val=1 cs0v=1 cs1v=1 steer=0
  hazards: raw=0 waw=0 struct=0 sb0=0 sb1=0
  issue: ir0_v=1 ir1_v=1
00080120: 00310233:  add    r04, r02, r03     
00080124: 00000000:      undefined inst       
-----
00080124: 01a00e93:  addi   r29, r00, 0000001a
00080128: 00000000:      undefined inst       
-----
00080128: 7fff80b7:  lui    r01, 7fff8000     
0008012c: 00000000:      undefined inst       
-----
DEBUG D: cyc=122 ir0=fff00193 ir1=00310233
  val=1 cs0v=1 cs1v=1 steer=0
  hazards: raw=1 waw=0 struct=0 sb0=0 sb1=0
  issue: ir0_v=1 ir1_v=0
0008012c: 00000000:      undefined inst       
0008012c: 00000000:      undefined inst       
-----
00080130: fff08093:  addi   r01, r01, ffffffff
0008012c: 00000000:      undefined inst       
-----
DEBUG D: cyc=124 ir0=00310233 ir1=01c00e93
  val=1 cs0v=1 cs1v=1 steer=0
  hazards: raw=0 waw=0 struct=0 sb0=0 sb1=0
  issue: ir0_v=1 ir1_v=1
00080130: 00000000:      undefined inst       
00080130: 00000000:      undefined inst       
-----
DEBUG D: cyc=125 ir0=01c00e93 ir1=fff00093
  val=1 cs0v=1 cs1v=1 steer=0
  hazards: raw=0 waw=0 struct=0 sb0=0 sb1=0
  issue: ir0_v=1 ir1_v=1
00080130: 26121463:  bne    r04, r01, 00000268
00080134: 00000000:      undefined inst       
-----
DEBUG D: cyc=126 ir0=fff00093 ir1=24121863
  val=1 cs0v=1 cs1v=1 steer=1
  hazards: raw=1 waw=0 struct=0 sb0=0 sb1=0
  issue: ir0_v=1 ir1_v=0
DEBUG D: cyc=128 ir0=24121863 ir1=fff00113
  val=1 cs0v=1 cs1v=1 steer=0
  hazards: raw=0 waw=0 struct=0 sb0=0 sb1=0
  issue: ir0_v=1 ir1_v=1
00080138: fff00193:  addi   r03, r00, ffffffff
0008013c: 00000000:      undefined inst       
-----
0008013c: 00000000:      undefined inst       
0008013c: 00000000:      undefined inst       
-----
0008013c: 00310233:  add    r04, r02, r03     
00080140: 00000000:      undefined inst       
-----
DEBUG D: cyc=131 ir0=00100193 ir1=00310233
  val=1 cs0v=1 cs1v=1 steer=0
  hazards: raw=1 waw=0 struct=0 sb0=0 sb1=0
  issue: ir0_v=1 ir1_v=0
00080140: 01c00e93:  addi   r29, r00, 0000001c
00080144: 00000000:      undefined inst       
-----
00080148: fff00093:  addi   r01, r00, ffffffff
00080144: 00000000:      undefined inst       
-----
DEBUG D: cyc=133 ir0=00310233 ir1=01d00e93
  val=1 cs0v=1 cs1v=1 steer=0
  hazards: raw=0 waw=0 struct=0 sb0=0 sb1=0
  issue: ir0_v=1 ir1_v=1
00080148: 00000000:      undefined inst       
00080148: 00000000:      undefined inst       
-----
DEBUG D: cyc=134 ir0=01d00e93 ir1=00000093
  val=1 cs0v=1 cs1v=1 steer=0
  hazards: raw=0 waw=0 struct=0 sb0=0 sb1=0
  issue: ir0_v=1 ir1_v=1
00080148: 24121863:  bne    r04, r01, 00000250
0008014c: 00000000:      undefined inst       
-----
DEBUG D: cyc=135 ir0=00000093 ir1=22121c63
  val=1 cs0v=1 cs1v=1 steer=1
  hazards: raw=1 waw=0 struct=0 sb0=0 sb1=0
  issue: ir0_v=1 ir1_v=0
DEBUG D: cyc=137 ir0=22121c63 ir1=fff00113
  val=1 cs0v=1 cs1v=1 steer=0
  hazards: raw=0 waw=0 struct=0 sb0=0 sb1=0
  issue: ir0_v=1 ir1_v=1
00080150: 00100193:  addi   r03, r00, 00000001
00080154: 00000000:      undefined inst       
-----
DEBUG D: cyc=138 ir0=fff00113 ir1=fff00193
  val=1 cs0v=1 cs1v=1 steer=0
  hazards: raw=0 waw=0 struct=0 sb0=0 sb1=0
  issue: ir0_v=1 ir1_v=1
00080154: 00000000:      undefined inst       
00080154: 00000000:      undefined inst       
-----
DEBUG D: cyc=139 ir0=fff00193 ir1=00310233
  val=1 cs0v=1 cs1v=1 steer=0
  hazards: raw=1 waw=0 struct=0 sb0=0 sb1=0
  issue: ir0_v=1 ir1_v=0
00080154: 00310233:  add    r04, r02, r03     
00080158: 00000000:      undefined inst       
-----
00080158: 01d00e93:  addi   r29, r00, 0000001d
0008015c: 00000000:      undefined inst       
-----
DEBUG D: cyc=141 ir0=00310233 ir1=01e00e93
  val=1 cs0v=1 cs1v=1 steer=0
  hazards: raw=0 waw=0 struct=0 sb0=0 sb1=0
  issue: ir0_v=1 ir1_v=1
00080160: 00000093:  addi   r01, r00, 00000000
0008015c: 00000000:      undefined inst       
-----
DEBUG D: cyc=142 ir0=01e00e93 ir1=ffe00093
  val=1 cs0v=1 cs1v=1 steer=0
  hazards: raw=0 waw=0 struct=0 sb0=0 sb1=0
  issue: ir0_v=1 ir1_v=1
00080160: 00000000:      undefined inst       
00080160: 00000000:      undefined inst       
-----
DEBUG D: cyc=143 ir0=ffe00093 ir1=22121063
  val=1 cs0v=1 cs1v=1 steer=1
  hazards: raw=1 waw=0 struct=0 sb0=0 sb1=0
  issue: ir0_v=1 ir1_v=0
00080160: 22121c63:  bne    r04, r01, 00000238
00080164: 00000000:      undefined inst       
-----
00080164: fff00113:  addi   r02, r00, ffffffff
00080168: 00000000:      undefined inst       
-----
DEBUG D: cyc=145 ir0=22121063 ir1=00d00113
  val=1 cs0v=1 cs1v=1 steer=0
  hazards: raw=0 waw=0 struct=0 sb0=0 sb1=0
  issue: ir0_v=1 ir1_v=1
00080168: fff00193:  addi   r03, r00, ffffffff
0008016c: 00000000:      undefined inst       
-----
0008016c: 00000000:      undefined inst       
0008016c: 00000000:      undefined inst       
-----
0008016c: 00310233:  add    r04, r02, r03     
00080170: 00000000:      undefined inst       
-----
DEBUG D: cyc=148 ir0=00b00193 ir1=00310133
  val=1 cs0v=1 cs1v=1 steer=0
  hazards: raw=1 waw=0 struct=0 sb0=0 sb1=0
  issue: ir0_v=1 ir1_v=0
00080170: 01e00e93:  addi   r29, r00, 0000001e
00080174: 00000000:      undefined inst       
-----
00080178: ffe00093:  addi   r01, r00, fffffffe
00080174: 00000000:      undefined inst       
-----
DEBUG D: cyc=150 ir0=00310133 ir1=02400e93
  val=1 cs0v=1 cs1v=1 steer=0
  hazards: raw=0 waw=0 struct=0 sb0=0 sb1=0
  issue: ir0_v=1 ir1_v=1
00080178: 00000000:      undefined inst       
00080178: 00000000:      undefined inst       
-----
DEBUG D: cyc=151 ir0=02400e93 ir1=01800093
  val=1 cs0v=1 cs1v=1 steer=0
  hazards: raw=0 waw=0 struct=0 sb0=0 sb1=0
  issue: ir0_v=1 ir1_v=1
00080178: 22121063:  bne    r04, r01, 00000220
0008017c: 00000000:      undefined inst       
-----
DEBUG D: cyc=152 ir0=01800093 ir1=20111463
  val=1 cs0v=1 cs1v=1 steer=1
  hazards: raw=1 waw=0 struct=0 sb0=0 sb1=0
  issue: ir0_v=1 ir1_v=0
DEBUG D: cyc=154 ir0=20111463 ir1=00e00113
  val=1 cs0v=1 cs1v=1 steer=0
